// Copyright 2016 Proyectos y Sistemas de Mantenimiento SL (eProsima).
//
// Licensed under the Apache License, Version 2.0 (the "License");
// you may not use this file except in compliance with the License.
// You may obtain a copy of the License at
//
//     http://www.apache.org/licenses/LICENSE-2.0
//
// Unless required by applicable law or agreed to in writing, software
// distributed under the License is distributed on an "AS IS" BASIS,
// WITHOUT WARRANTIES OR CONDITIONS OF ANY KIND, either express or implied.
// See the License for the specific language governing permissions and
// limitations under the License.

/*!
 * @file CartPoleFeedback.i
 * This header file contains the SWIG interface of the described types in the IDL file.
 *
 * This file was generated by the tool gen.
 */

%module CartPoleFeedback

// SWIG helper modules
%include "stdint.i"
%include "std_string.i"
%include "std_vector.i"
%include "std_array.i"
%include "std_map.i"
%include "typemaps.i"

// Assignemt operators are ignored, as there is no such thing in Python.
// Trying to export them issues a warning
%ignore *::operator=;

// Macro declarations
// Any macro used on the Fast DDS header files will give an error if it is not redefined here
#define RTPS_DllAPI
#define eProsima_user_DllExport


%{
#include "CartPoleFeedback.h"

#include <fastdds/dds/core/LoanableSequence.hpp>
%}

%import(module="fastdds") "fastdds/dds/core/LoanableCollection.hpp"
%import(module="fastdds") "fastdds/dds/core/LoanableTypedCollection.hpp"
%import(module="fastdds") "fastdds/dds/core/LoanableSequence.hpp"

////////////////////////////////////////////////////////
// Binding for class CartPoleFeedback
////////////////////////////////////////////////////////

// Ignore overloaded methods that have no application on Python
// Otherwise they will issue a warning
%ignore CartPoleFeedback::CartPoleFeedback(CartPoleFeedback&&);

// Overloaded getter methods shadow each other and are equivalent in python
// Avoid a warning ignoring all but one
%ignore CartPoleFeedback::cart_x(double&&);

// Overloaded getter methods shadow each other and are equivalent in python
// Const accesors produced constant enums instead of arrays/dictionaries when used
// We ignore them to prevent this
%ignore CartPoleFeedback::cart_x();
%rename("%s") CartPoleFeedback::cart_x() const;

%ignore CartPoleFeedback::cart_x_dot(double&&);

// Overloaded getter methods shadow each other and are equivalent in python
// Const accesors produced constant enums instead of arrays/dictionaries when used
// We ignore them to prevent this
%ignore CartPoleFeedback::cart_x_dot();
%rename("%s") CartPoleFeedback::cart_x_dot() const;

%ignore CartPoleFeedback::cart_x_dotdot(double&&);

// Overloaded getter methods shadow each other and are equivalent in python
// Const accesors produced constant enums instead of arrays/dictionaries when used
// We ignore them to prevent this
%ignore CartPoleFeedback::cart_x_dotdot();
%rename("%s") CartPoleFeedback::cart_x_dotdot() const;

%ignore CartPoleFeedback::pole_theta(double&&);

// Overloaded getter methods shadow each other and are equivalent in python
// Const accesors produced constant enums instead of arrays/dictionaries when used
// We ignore them to prevent this
%ignore CartPoleFeedback::pole_theta();
%rename("%s") CartPoleFeedback::pole_theta() const;

%ignore CartPoleFeedback::pole_theta_dot(double&&);

// Overloaded getter methods shadow each other and are equivalent in python
// Const accesors produced constant enums instead of arrays/dictionaries when used
// We ignore them to prevent this
%ignore CartPoleFeedback::pole_theta_dot();
%rename("%s") CartPoleFeedback::pole_theta_dot() const;

%ignore CartPoleFeedback::pole_theta_dotdot(double&&);

// Overloaded getter methods shadow each other and are equivalent in python
// Const accesors produced constant enums instead of arrays/dictionaries when used
// We ignore them to prevent this
%ignore CartPoleFeedback::pole_theta_dotdot();
%rename("%s") CartPoleFeedback::pole_theta_dotdot() const;


%template(_CartPoleFeedbackSeq) eprosima::fastdds::dds::LoanableTypedCollection<CartPoleFeedback, std::false_type>;
%template(CartPoleFeedbackSeq) eprosima::fastdds::dds::LoanableSequence<CartPoleFeedback, std::false_type>;
%extend eprosima::fastdds::dds::LoanableSequence<CartPoleFeedback, std::false_type>
{
    size_t __len__() const
    {
        return self->length();
    }

    const CartPoleFeedback& __getitem__(size_t i) const
    {
        return (*self)[i];
    }
}


// Include the class interfaces
%include "CartPoleFeedback.h"

// Include the corresponding TopicDataType
%include "CartPoleFeedbackPubSubTypes.i"
